%YAML 1.1
%TAG !u! tag:unity3d.com,2011:
--- !u!1045 &1
EditorBuildSettings:
  m_ObjectHideFlags: 0
  serializedVersion: 2
  m_Scenes:
  - enabled: 1
    path: Assets/Scenes/Game Over.unity
    guid: d62b66a438e7b96419e5e22544446e45
  - enabled: 1
    path: Assets/Scenes/Beta_Scene.unity
    guid: 1c05d97313f6b48d7a7420ce76bea6db
  - enabled: 1
    path: Assets/Scenes/Main_Menu.unity
    guid: 4b0b6ca55da98c04bae44541b2962bac
  m_configObjects: {}
